<?xml version="1.0" encoding="UTF-8"?>
<svg version="1.1" viewBox="0 0 48 48" xmlns="http://www.w3.org/2000/svg">
 <path d="m8 20v18h32v-18" fill="none" stroke="#000000" stroke-linecap="round" stroke-linejoin="round" stroke-width="2"/>
 <g fill="#000000">
  <rect x="5" y="17" width="6" height="6" stop-color="#000000"/>
  <rect x="37" y="17" width="6" height="6" stop-color="#000000"/>
  <rect x="37" y="35" width="6" height="6" stop-color="#000000"/>
  <rect x="5" y="35" width="6" height="6" stop-color="#000000"/>
  <rect x="17" y="4" width="6" height="6" stop-color="#000000"/>
 </g>
 <path d="m20 7 20 13" fill="none" stroke="#000000" stroke-dasharray="2,2" stroke-width="2"/>
</svg>
